{
  "project_info": {
    "project_number": "1084130997659",
    "firebase_url": "https://mycar-ef840.firebaseio.com",
    "project_id": "mycar-ef840",
    "storage_bucket": "mycar-ef840.appspot.com"
  },
  "client": [
    {
      "client_info": {
        "mobilesdk_app_id": "1:1084130997659:android:e13632dbdb907c5e",
        "android_client_info": {
          "package_name": "com.clt.newcarspa"
        }
      },
      "oauth_client": [
        {
          "client_id": "1084130997659-hptq3tbij3um63q26lv9v7pf14m6f4m3.apps.googleusercontent.com",
          "client_type": 1,
          "android_info": {
            "package_name": "com.clt.newcarspa",
            "certificate_hash": "4d0bf777308c3ed8b6c699256bdbcb218d2ab86a"
          }
        },
        {
          "client_id": "1084130997659-j9a9e0jicir2dr60gbsdsu66p0j1jhpj.apps.googleusercontent.com",
          "client_type": 3
        }
      ],
      "api_key": [
        {
          "current_key": "AIzaSyAc1921oPsB_Q1WEt9mSw6slGvtnSQfBVs"
        }
      ],
      "services": {
        "analytics_service": {
          "status": 1
        },
        "appinvite_service": {
          "status": 2,
          "other_platform_oauth_client": [
            {
              "client_id": "1084130997659-j9a9e0jicir2dr60gbsdsu66p0j1jhpj.apps.googleusercontent.com",
              "client_type": 3
            }
          ]
        },
        "ads_service": {
          "status": 2
        }
      }
    }
  ],
  "configuration_version": "1"
}